index
…
Then, we’ll move on to the ‘episode’ column and create a frequency table.

ep_freq_table <- kn_data %>%   
  group_by(episode) %>%   
  summarise(frequency = n()) %>%   arrange(desc(frequency))  

ep_freq_table

# A tibble: 23 × 2
   episode frequency
   <chr>       <int>
 1 9               8
 2 2               7
 3 3               7
 4 4               7
 5 5               6
 6 6               6
 7 7               6
 8 8               6
 9 1               5
10 10              5
# ℹ 13 more rows
…
Next, we will make a frequency table for the ‘restaurant’ column.

restaurant_freq_table <- kn_data %>%   
  group_by(restaurant) %>%   
  summarise(frequency = n()) %>%   arrange(desc(frequency))  

restaurant_freq_table

# A tibble: 87 × 2
   restaurant           frequency
   <chr>                    <int>
 1 Amy's Baking Company         1
 2 Anna Vincenzo's              1
 3 BaREfoOt BoB's               1
 4 Bask 46                      1
 5 Bazzini                      1
 6 Bel Aire                     1
 7 Bella Luna                   1
 8 Black Pearl...               1
 9 Blackberry's                 1
10 Burger Kitchen01             1
# ℹ 77 more rows
…
restaurant_freq_table <- kn_data %>%   
  group_by(restaurant) %>%   
  summarise(frequency = n()) %>%   arrange(desc(frequency))  

restaurant_freq_table

# A tibble: 87 × 2
   restaurant           frequency
   <chr>                    <int>
 1 Amy's Baking Company         1
 2 Anna Vincenzo's              1
 3 Barefoot Bob's               1
 4 Bask 46                      1
 5 Bazzini                      1
 6 Bel Aire                     1
 7 Bella Luna                   1
 8 Black Pearl                  1
 9 Blackberry's                 1
10 Burger Kitchen               1
# ℹ 77 more rows

Next, let’s look at the ‘city’ frequency table.

city_freq_table <- kn_data %>%   
  group_by(city) %>%   
  summarise(frequency = n()) %>%   arrange(desc(frequency))  

city_freq_table

# A tibble: 79 × 2
   city          frequency
   <chr>             <int>
 1 Brooklyn              4
 2 Babylon               2
 3 Boston                2
 4 Philadelphia          2
 5 Queens                2
 6 Woodland Park         2
 7 Anaheim               1
 8 Arvada                1
 9 Astoria               1
10 Atlanta               1
# ℹ 69 more rows

There are a couple values that need to be manually changed since they were put in as abbreviations. There is also one value with the string ‘…’ at the end that needs to be fixed. Then, we’ll re-call the frequency table to check our work.

#manually change values
kn_data$city[kn_data$city == "LA"] <- "Los Angeles"
kn_data$city[kn_data$city == "NYC"] <- "New York City"
kn_data$city[kn_data$city == "Harrison..."] <- "Harrison"

city_freq_table <- kn_data %>%   
  group_by(city) %>%   
  summarise(frequency = n()) %>%   arrange(desc(frequency))  

city_freq_table

# A tibble: 77 × 2
   city          frequency
   <chr>             <int>
 1 Brooklyn              4
 2 Babylon               2
 3 Boston                2
 4 Los Angeles           2
 5 New York City         2
 6 Philadelphia          2
 7 Queens                2
 8 Woodland Park         2
 9 Anaheim               1
10 Arvada                1
# ℹ 67 more rows

Next, let’s look at the ‘state’ column and create a frequency table.

state_freq_table <- kn_data %>%   
  group_by(state) %>%   
  summarise(frequency = n()) %>%   arrange(desc(frequency))  

state_freq_table

# A tibble: 25 × 2
   state frequency
   <chr>     <int>
 1 NY           20
 2 CA           18
 3 NJ           11
 4 PA            6
 5 MA            4
 6 CO            3
 7 FL            3
 8 CT            2
 9 GA            2
10 MI            2
# ℹ 15 more rows
…
Next, let’s look at the ‘air_date’ column and create a frequency table.

airdate_freq_table <- kn_data %>%   
  group_by(air_date) %>%   
  summarise(frequency = n()) %>%   arrange(desc(frequency))  

airdate_freq_table

# A tibble: 84 × 2
   air_date           frequency
   <chr>                  <int>
 1 2008-11-06                 2
 2 2008-11-13                 2
 3 2014-04-18                 2
 4 09-25-2008                 1
 5 12th of march 2010         1
 6 2007-09-19                 1
 7 2007-09-26                 1
 8 2007-10-10                 1
 9 2007-10-17                 1
10 2007-11-07                 1
# ℹ 74 more rows
…
#manually change values
kn_data$air_date[kn_data$air_date == "09-25-2008"] <- "2008-09-25"
kn_data$air_date[kn_data$air_date == "12th of march 2010"] <- "2010-03-12"
kn_data$air_date[kn_data$air_date == "2023-12-4"] <- "2023-12-04"
kn_data$air_date[kn_data$air_date == "may 2 2014"] <- "2014-05-02"
kn_data$air_date[kn_data$air_date == "october 3 2007"] <- "2007-10-03"

airdate_freq_table <- kn_data %>%   
  group_by(air_date) %>%   
  summarise(frequency = n()) %>%   arrange(desc(frequency))  

airdate_freq_table

# A tibble: 82 × 2
   air_date   frequency
   <chr>          <int>
 1 2008-09-25         2
 2 2008-11-06         2
 3 2008-11-13         2
 4 2014-04-18         2
 5 2023-12-04         2
 6 2007-09-19         1
 7 2007-09-26         1
 8 2007-10-03         1
 9 2007-10-10         1
10 2007-10-17         1
# ℹ 72 more rows
…
# A tibble: 2 × 2
  status frequency
  <chr>      <int>
1 Closed        67
2 Open          20

Next, let’s make a ‘film_month’ frequency table. Everything looks normal here, so we will move on.

filmmonth_freq_table <- kn_data %>%   
  group_by(film_month) %>%   
  summarise(frequency = n()) %>%   arrange(desc(frequency))  

filmmonth_freq_table

# A tibble: 26 × 2
   film_month frequency
   <chr>          <int>
 1 Feb 2008           9
 2 Jun 2023           8
 3 Mar 2007           7
 4 Jul 2009           6
 5 Jan 2011           5
 6 Jul 2011           4
 7 Jul 2013           4
 8 Jun 2012           4
 9 May 2009           4
10 Aug 2011           3
# ℹ 16 more rows

Next, let’s make a ‘closing_year’ frequency table.

closeyear_freq_table <- kn_data %>%   
  group_by(closing_year) %>%   
  summarise(frequency = n()) %>%   arrange(desc(frequency))  

closeyear_freq_table

# A tibble: 23 × 2
   closing_year frequency
   <chr>            <int>
 1 N/A                 12
 2 2010                11
 3 2008                 7
 4 2013                 7
 5 2009                 6
 6 2012                 6
 7 2016                 6
 8 2014                 5
 9 2011                 4
10 2022                 3
# ℹ 13 more rows
…
Next, we’ll make a ‘cuisine’ frequency table.

cuisine_freq_table <- kn_data %>%   
  group_by(cuisine) %>%   
  summarise(frequency = n()) %>%   arrange(desc(frequency))  

cuisine_freq_table

# A tibble: 31 × 2
   cuisine     frequency
   <chr>           <int>
 1 American           23
 2 Italian            22
 3 Greek               4
 4 Seafood             4
 5 Mexican             3
 6 Fine Dining         2
 7 French              2
 8 Indian              2
 9 Irish               2
10 Soul Food           2
# ℹ 21 more rows
There are some repetitive values that need to be manually changed. Then, we’ll re-call the frequency table to make sure the changes worked.

kn_data$cuisine[kn_data$cuisine == "Italy"] <- "Italian"
kn_data$cuisine[kn_data$cuisine == "Pizzeria"] <- "Pizza"
kn_data$cuisine[kn_data$cuisine == "Steak"] <- "Steakhouse"
kn_data$cuisine[kn_data$cuisine == "american"] <- "American"
kn_data$cuisine[kn_data$cuisine == "breakfast"] <- "Breakfast"

cuisine_freq_table <- kn_data %>%   
  group_by(cuisine) %>%   
  summarise(frequency = n()) %>%   arrange(desc(frequency))  

cuisine_freq_table

# A tibble: 27 × 2
   cuisine     frequency
   <chr>           <int>
 1 American           24
 2 Italian            23
 3 Greek               4
 4 Seafood             4
 5 Mexican             3
 6 Fine Dining         2
 7 French              2
 8 Indian              2
 9 Irish               2
10 Pizza               2
# ℹ 17 more rows
…
